^C:\USERS\JOSHUA.CREIGHTO\DESKTOP\COMPUTER GRAPHICS\SUBMISSION 2 - RESUBMISSION\SOURCE CODE\OPENGL ENGINE\OPENGL 1\SRC\TEXTURE APP\TEXTUREAPP.CPP
C:\USERS\JOSHUA.CREIGHTO\DESKTOP\COMPUTER GRAPHICS\SUBMISSION 2 - RESUBMISSION\SOURCE CODE\OPENGL ENGINE\OPENGL 1\SRC\TEXTURE APP\TEXTUREAPP.H
C:\USERS\JOSHUA.CREIGHTO\DESKTOP\COMPUTER GRAPHICS\SUBMISSION 2 - RESUBMISSION\SOURCE CODE\OPENGL ENGINE\OPENGL 1\SRC\GAMEOBJECT CLASS\BASEOBJECT.H
^C:\USERS\JOSHUA.CREIGHTO\DESKTOP\COMPUTER GRAPHICS\SUBMISSION 2 - RESUBMISSION\SOURCE CODE\OPENGL ENGINE\OPENGL 1\SRC\MAIN.CPP
^C:\USERS\JOSHUA.CREIGHTO\DESKTOP\COMPUTER GRAPHICS\SUBMISSION 2 - RESUBMISSION\SOURCE CODE\OPENGL ENGINE\OPENGL 1\SRC\FLYING CAMERA CLASS\FLYCAMERA.CPP
C:\USERS\JOSHUA.CREIGHTO\DESKTOP\COMPUTER GRAPHICS\SUBMISSION 2 - RESUBMISSION\SOURCE CODE\OPENGL ENGINE\OPENGL 1\SRC\FLYING CAMERA CLASS\FLYCAMERA.H
C:\USERS\JOSHUA.CREIGHTO\DESKTOP\COMPUTER GRAPHICS\SUBMISSION 2 - RESUBMISSION\SOURCE CODE\OPENGL ENGINE\OPENGL 1\SRC\BASE CLASSES\BASECAMERA.H
^C:\USERS\JOSHUA.CREIGHTO\DESKTOP\COMPUTER GRAPHICS\SUBMISSION 2 - RESUBMISSION\SOURCE CODE\OPENGL ENGINE\OPENGL 1\EXTERN\GIZMOS.CPP
^C:\USERS\JOSHUA.CREIGHTO\DESKTOP\COMPUTER GRAPHICS\SUBMISSION 2 - RESUBMISSION\SOURCE CODE\OPENGL ENGINE\OPENGL 1\SRC\BASE CLASSES\BASECAMERA.CPP
C:\USERS\JOSHUA.CREIGHTO\DESKTOP\COMPUTER GRAPHICS\SUBMISSION 2 - RESUBMISSION\SOURCE CODE\OPENGL ENGINE\OPENGL 1\SRC\BASE CLASSES\BASECAMERA.H
^C:\USERS\JOSHUA.CREIGHTO\DESKTOP\COMPUTER GRAPHICS\SUBMISSION 2 - RESUBMISSION\SOURCE CODE\OPENGL ENGINE\OPENGL 1\SRC\SOLAR SYSTEM APPLICATION\PLANET.CPP
C:\USERS\JOSHUA.CREIGHTO\DESKTOP\COMPUTER GRAPHICS\SUBMISSION 2 - RESUBMISSION\SOURCE CODE\OPENGL ENGINE\OPENGL 1\SRC\SOLAR SYSTEM APPLICATION\PLANET.H
C:\PROGRAM FILES (X86)\MICROSOFT VISUAL STUDIO 14.0\VC\INCLUDE\IOSTREAM
C:\PROGRAM FILES (X86)\MICROSOFT VISUAL STUDIO 14.0\VC\INCLUDE\ISTREAM
C:\PROGRAM FILES (X86)\MICROSOFT VISUAL STUDIO 14.0\VC\INCLUDE\OSTREAM
C:\PROGRAM FILES (X86)\MICROSOFT VISUAL STUDIO 14.0\VC\INCLUDE\IOS
C:\PROGRAM FILES (X86)\MICROSOFT VISUAL STUDIO 14.0\VC\INCLUDE\XLOCNUM
C:\PROGRAM FILES (X86)\MICROSOFT VISUAL STUDIO 14.0\VC\INCLUDE\CLIMITS
C:\PROGRAM FILES (X86)\MICROSOFT VISUAL STUDIO 14.0\VC\INCLUDE\YVALS.H
C:\PROGRAM FILES (X86)\MICROSOFT VISUAL STUDIO 14.0\VC\INCLUDE\XKEYCHECK.H
C:\PROGRAM FILES (X86)\MICROSOFT VISUAL STUDIO 14.0\VC\INCLUDE\CRTDEFS.H
C:\PROGRAM FILES (X86)\MICROSOFT VISUAL STUDIO 14.0\VC\INCLUDE\VCRUNTIME.H
C:\PROGRAM FILES (X86)\MICROSOFT VISUAL STUDIO 14.0\VC\INCLUDE\SAL.H
C:\PROGRAM FILES (X86)\MICROSOFT VISUAL STUDIO 14.0\VC\INCLUDE\CONCURRENCYSAL.H
C:\PROGRAM FILES (X86)\MICROSOFT VISUAL STUDIO 14.0\VC\INCLUDE\VADEFS.H
C:\PROGRAM FILES (X86)\WINDOWS KITS\10\INCLUDE\10.0.10240.0\UCRT\CORECRT.H
C:\PROGRAM FILES (X86)\MICROSOFT VISUAL STUDIO 14.0\VC\INCLUDE\USE_ANSI.H
C:\PROGRAM FILES (X86)\MICROSOFT VISUAL STUDIO 14.0\VC\INCLUDE\LIMITS.H
C:\PROGRAM FILES (X86)\MICROSOFT VISUAL STUDIO 14.0\VC\INCLUDE\CMATH
C:\PROGRAM FILES (X86)\WINDOWS KITS\10\INCLUDE\10.0.10240.0\UCRT\MATH.H
C:\PROGRAM FILES (X86)\MICROSOFT VISUAL STUDIO 14.0\VC\INCLUDE\XTGMATH.H
C:\PROGRAM FILES (X86)\MICROSOFT VISUAL STUDIO 14.0\VC\INCLUDE\XTR1COMMON
C:\PROGRAM FILES (X86)\MICROSOFT VISUAL STUDIO 14.0\VC\INCLUDE\CSTDLIB
C:\PROGRAM FILES (X86)\WINDOWS KITS\10\INCLUDE\10.0.10240.0\UCRT\STDLIB.H
C:\PROGRAM FILES (X86)\WINDOWS KITS\10\INCLUDE\10.0.10240.0\UCRT\CORECRT_MALLOC.H
C:\PROGRAM FILES (X86)\WINDOWS KITS\10\INCLUDE\10.0.10240.0\UCRT\CORECRT_SEARCH.H
C:\PROGRAM FILES (X86)\WINDOWS KITS\10\INCLUDE\10.0.10240.0\UCRT\STDDEF.H
C:\PROGRAM FILES (X86)\WINDOWS KITS\10\INCLUDE\10.0.10240.0\UCRT\CORECRT_WSTDLIB.H
C:\PROGRAM FILES (X86)\MICROSOFT VISUAL STUDIO 14.0\VC\INCLUDE\CSTDIO
C:\PROGRAM FILES (X86)\WINDOWS KITS\10\INCLUDE\10.0.10240.0\UCRT\STDIO.H
C:\PROGRAM FILES (X86)\WINDOWS KITS\10\INCLUDE\10.0.10240.0\UCRT\CORECRT_WSTDIO.H
C:\PROGRAM FILES (X86)\WINDOWS KITS\10\INCLUDE\10.0.10240.0\UCRT\CORECRT_STDIO_CONFIG.H
C:\PROGRAM FILES (X86)\MICROSOFT VISUAL STUDIO 14.0\VC\INCLUDE\STREAMBUF
C:\PROGRAM FILES (X86)\MICROSOFT VISUAL STUDIO 14.0\VC\INCLUDE\XIOSBASE
C:\PROGRAM FILES (X86)\MICROSOFT VISUAL STUDIO 14.0\VC\INCLUDE\XLOCALE
C:\PROGRAM FILES (X86)\MICROSOFT VISUAL STUDIO 14.0\VC\INCLUDE\CSTRING
C:\PROGRAM FILES (X86)\WINDOWS KITS\10\INCLUDE\10.0.10240.0\UCRT\STRING.H
C:\PROGRAM FILES (X86)\WINDOWS KITS\10\INCLUDE\10.0.10240.0\UCRT\CORECRT_MEMORY.H
C:\PROGRAM FILES (X86)\WINDOWS KITS\10\INCLUDE\10.0.10240.0\UCRT\CORECRT_MEMCPY_S.H
C:\PROGRAM FILES (X86)\WINDOWS KITS\10\INCLUDE\10.0.10240.0\UCRT\ERRNO.H
C:\PROGRAM FILES (X86)\MICROSOFT VISUAL STUDIO 14.0\VC\INCLUDE\VCRUNTIME_STRING.H
C:\PROGRAM FILES (X86)\WINDOWS KITS\10\INCLUDE\10.0.10240.0\UCRT\CORECRT_WSTRING.H
C:\PROGRAM FILES (X86)\MICROSOFT VISUAL STUDIO 14.0\VC\INCLUDE\STDEXCEPT
C:\PROGRAM FILES (X86)\MICROSOFT VISUAL STUDIO 14.0\VC\INCLUDE\EXCEPTION
C:\PROGRAM FILES (X86)\MICROSOFT VISUAL STUDIO 14.0\VC\INCLUDE\TYPE_TRAITS
C:\PROGRAM FILES (X86)\MICROSOFT VISUAL STUDIO 14.0\VC\INCLUDE\XSTDDEF
C:\PROGRAM FILES (X86)\MICROSOFT VISUAL STUDIO 14.0\VC\INCLUDE\CSTDDEF
C:\PROGRAM FILES (X86)\MICROSOFT VISUAL STUDIO 14.0\VC\INCLUDE\INITIALIZER_LIST
C:\PROGRAM FILES (X86)\WINDOWS KITS\10\INCLUDE\10.0.10240.0\UCRT\MALLOC.H
C:\PROGRAM FILES (X86)\MICROSOFT VISUAL STUDIO 14.0\VC\INCLUDE\VCRUNTIME_EXCEPTION.H
C:\PROGRAM FILES (X86)\MICROSOFT VISUAL STUDIO 14.0\VC\INCLUDE\EH.H
C:\PROGRAM FILES (X86)\WINDOWS KITS\10\INCLUDE\10.0.10240.0\UCRT\CORECRT_TERMINATE.H
C:\PROGRAM FILES (X86)\MICROSOFT VISUAL STUDIO 14.0\VC\INCLUDE\XSTRING
C:\PROGRAM FILES (X86)\MICROSOFT VISUAL STUDIO 14.0\VC\INCLUDE\XMEMORY0
C:\PROGRAM FILES (X86)\MICROSOFT VISUAL STUDIO 14.0\VC\INCLUDE\CSTDINT
C:\PROGRAM FILES (X86)\MICROSOFT VISUAL STUDIO 14.0\VC\INCLUDE\STDINT.H
C:\PROGRAM FILES (X86)\MICROSOFT VISUAL STUDIO 14.0\VC\INCLUDE\LIMITS
C:\PROGRAM FILES (X86)\MICROSOFT VISUAL STUDIO 14.0\VC\INCLUDE\YMATH.H
C:\PROGRAM FILES (X86)\MICROSOFT VISUAL STUDIO 14.0\VC\INCLUDE\CFLOAT
C:\PROGRAM FILES (X86)\WINDOWS KITS\10\INCLUDE\10.0.10240.0\UCRT\FLOAT.H
C:\PROGRAM FILES (X86)\MICROSOFT VISUAL STUDIO 14.0\VC\INCLUDE\CWCHAR
C:\PROGRAM FILES (X86)\WINDOWS KITS\10\INCLUDE\10.0.10240.0\UCRT\WCHAR.H
C:\PROGRAM FILES (X86)\WINDOWS KITS\10\INCLUDE\10.0.10240.0\UCRT\CORECRT_WCONIO.H
C:\PROGRAM FILES (X86)\WINDOWS KITS\10\INCLUDE\10.0.10240.0\UCRT\CORECRT_WCTYPE.H
C:\PROGRAM FILES (X86)\WINDOWS KITS\10\INCLUDE\10.0.10240.0\UCRT\CORECRT_WDIRECT.H
C:\PROGRAM FILES (X86)\WINDOWS KITS\10\INCLUDE\10.0.10240.0\UCRT\CORECRT_WIO.H
C:\PROGRAM FILES (X86)\WINDOWS KITS\10\INCLUDE\10.0.10240.0\UCRT\CORECRT_SHARE.H
C:\PROGRAM FILES (X86)\WINDOWS KITS\10\INCLUDE\10.0.10240.0\UCRT\CORECRT_WPROCESS.H
C:\PROGRAM FILES (X86)\WINDOWS KITS\10\INCLUDE\10.0.10240.0\UCRT\CORECRT_WTIME.H
C:\PROGRAM FILES (X86)\WINDOWS KITS\10\INCLUDE\10.0.10240.0\UCRT\SYS\STAT.H
C:\PROGRAM FILES (X86)\WINDOWS KITS\10\INCLUDE\10.0.10240.0\UCRT\SYS\TYPES.H
C:\PROGRAM FILES (X86)\MICROSOFT VISUAL STUDIO 14.0\VC\INCLUDE\NEW
C:\PROGRAM FILES (X86)\MICROSOFT VISUAL STUDIO 14.0\VC\INCLUDE\VCRUNTIME_NEW.H
C:\PROGRAM FILES (X86)\MICROSOFT VISUAL STUDIO 14.0\VC\INCLUDE\XUTILITY
C:\PROGRAM FILES (X86)\MICROSOFT VISUAL STUDIO 14.0\VC\INCLUDE\UTILITY
C:\PROGRAM FILES (X86)\MICROSOFT VISUAL STUDIO 14.0\VC\INCLUDE\IOSFWD
C:\PROGRAM FILES (X86)\WINDOWS KITS\10\INCLUDE\10.0.10240.0\UCRT\CRTDBG.H
C:\PROGRAM FILES (X86)\MICROSOFT VISUAL STUDIO 14.0\VC\INCLUDE\VCRUNTIME_NEW_DEBUG.H
C:\PROGRAM FILES (X86)\MICROSOFT VISUAL STUDIO 14.0\VC\INCLUDE\XATOMIC0.H
C:\PROGRAM FILES (X86)\MICROSOFT VISUAL STUDIO 14.0\VC\INCLUDE\INTRIN.H
C:\PROGRAM FILES (X86)\MICROSOFT VISUAL STUDIO 14.0\VC\INCLUDE\SETJMP.H
C:\PROGRAM FILES (X86)\MICROSOFT VISUAL STUDIO 14.0\VC\INCLUDE\IMMINTRIN.H
C:\PROGRAM FILES (X86)\MICROSOFT VISUAL STUDIO 14.0\VC\INCLUDE\WMMINTRIN.H
C:\PROGRAM FILES (X86)\MICROSOFT VISUAL STUDIO 14.0\VC\INCLUDE\NMMINTRIN.H
C:\PROGRAM FILES (X86)\MICROSOFT VISUAL STUDIO 14.0\VC\INCLUDE\SMMINTRIN.H
C:\PROGRAM FILES (X86)\MICROSOFT VISUAL STUDIO 14.0\VC\INCLUDE\TMMINTRIN.H
C:\PROGRAM FILES (X86)\MICROSOFT VISUAL STUDIO 14.0\VC\INCLUDE\PMMINTRIN.H
C:\PROGRAM FILES (X86)\MICROSOFT VISUAL STUDIO 14.0\VC\INCLUDE\EMMINTRIN.H
C:\PROGRAM FILES (X86)\MICROSOFT VISUAL STUDIO 14.0\VC\INCLUDE\XMMINTRIN.H
C:\PROGRAM FILES (X86)\MICROSOFT VISUAL STUDIO 14.0\VC\INCLUDE\MMINTRIN.H
C:\PROGRAM FILES (X86)\MICROSOFT VISUAL STUDIO 14.0\VC\INCLUDE\AMMINTRIN.H
C:\PROGRAM FILES (X86)\MICROSOFT VISUAL STUDIO 14.0\VC\INCLUDE\TYPEINFO
C:\PROGRAM FILES (X86)\MICROSOFT VISUAL STUDIO 14.0\VC\INCLUDE\VCRUNTIME_TYPEINFO.H
C:\PROGRAM FILES (X86)\MICROSOFT VISUAL STUDIO 14.0\VC\INCLUDE\XLOCINFO
C:\PROGRAM FILES (X86)\MICROSOFT VISUAL STUDIO 14.0\VC\INCLUDE\XLOCINFO.H
C:\PROGRAM FILES (X86)\WINDOWS KITS\10\INCLUDE\10.0.10240.0\UCRT\CTYPE.H
C:\PROGRAM FILES (X86)\WINDOWS KITS\10\INCLUDE\10.0.10240.0\UCRT\LOCALE.H
C:\PROGRAM FILES (X86)\MICROSOFT VISUAL STUDIO 14.0\VC\INCLUDE\XFACET
C:\PROGRAM FILES (X86)\MICROSOFT VISUAL STUDIO 14.0\VC\INCLUDE\SYSTEM_ERROR
C:\PROGRAM FILES (X86)\MICROSOFT VISUAL STUDIO 14.0\VC\INCLUDE\CERRNO
C:\PROGRAM FILES (X86)\WINDOWS KITS\10\INCLUDE\10.0.10240.0\UCRT\SHARE.H
C:\PROGRAM FILES (X86)\MICROSOFT VISUAL STUDIO 14.0\VC\INCLUDE\VECTOR
C:\PROGRAM FILES (X86)\MICROSOFT VISUAL STUDIO 14.0\VC\INCLUDE\XMEMORY
^C:\USERS\JOSHUA.CREIGHTO\DESKTOP\COMPUTER GRAPHICS\SUBMISSION 2 - RESUBMISSION\SOURCE CODE\OPENGL ENGINE\OPENGL 1\SRC\BASE CLASSES\BASEAPPLICATION.CPP
C:\USERS\JOSHUA.CREIGHTO\DESKTOP\COMPUTER GRAPHICS\SUBMISSION 2 - RESUBMISSION\SOURCE CODE\OPENGL ENGINE\OPENGL 1\SRC\BASE CLASSES\BASEAPPLICATION.H
^C:\USERS\JOSHUA.CREIGHTO\DESKTOP\COMPUTER GRAPHICS\SUBMISSION 2 - RESUBMISSION\SOURCE CODE\OPENGL ENGINE\OPENGL 1\SRC\SOLAR SYSTEM APPLICATION\SOLARSYSTEMAPP.CPP
C:\USERS\JOSHUA.CREIGHTO\DESKTOP\COMPUTER GRAPHICS\SUBMISSION 2 - RESUBMISSION\SOURCE CODE\OPENGL ENGINE\OPENGL 1\SRC\SOLAR SYSTEM APPLICATION\SOLARSYSTEMAPP.H
C:\USERS\JOSHUA.CREIGHTO\DESKTOP\COMPUTER GRAPHICS\SUBMISSION 2 - RESUBMISSION\SOURCE CODE\OPENGL ENGINE\OPENGL 1\SRC\GAMEOBJECT CLASS\BASEOBJECT.H
^C:\USERS\JOSHUA.CREIGHTO\DESKTOP\COMPUTER GRAPHICS\SUBMISSION 2 - RESUBMISSION\SOURCE CODE\OPENGL ENGINE\OPENGL 1\SRC\SHADER APP\SHADERAPPLICATION.CPP
C:\USERS\JOSHUA.CREIGHTO\DESKTOP\COMPUTER GRAPHICS\SUBMISSION 2 - RESUBMISSION\SOURCE CODE\OPENGL ENGINE\OPENGL 1\SRC\SHADER APP\SHADERAPPLICATION.H
C:\USERS\JOSHUA.CREIGHTO\DESKTOP\COMPUTER GRAPHICS\SUBMISSION 2 - RESUBMISSION\SOURCE CODE\OPENGL ENGINE\OPENGL 1\SRC\GAMEOBJECT CLASS\BASEOBJECT.H
^C:\USERS\JOSHUA.CREIGHTO\DESKTOP\COMPUTER GRAPHICS\SUBMISSION 2 - RESUBMISSION\SOURCE CODE\OPENGL ENGINE\OPENGL 1\SRC\FBX LOADER APP\FBXAPPLICATION.CPP
C:\USERS\JOSHUA.CREIGHTO\DESKTOP\COMPUTER GRAPHICS\SUBMISSION 2 - RESUBMISSION\SOURCE CODE\OPENGL ENGINE\OPENGL 1\SRC\FBX LOADER APP\FBXAPPLICATION.H
C:\USERS\JOSHUA.CREIGHTO\DESKTOP\COMPUTER GRAPHICS\SUBMISSION 2 - RESUBMISSION\SOURCE CODE\OPENGL ENGINE\OPENGL 1\SRC\GAMEOBJECT CLASS\BASEOBJECT.H
^C:\USERS\JOSHUA.CREIGHTO\DESKTOP\COMPUTER GRAPHICS\SUBMISSION 2 - RESUBMISSION\SOURCE CODE\OPENGL ENGINE\OPENGL 1\SRC\TINYOBJ LOADER APP\OBJAPPLICATION.CPP
C:\USERS\JOSHUA.CREIGHTO\DESKTOP\COMPUTER GRAPHICS\SUBMISSION 2 - RESUBMISSION\SOURCE CODE\OPENGL ENGINE\OPENGL 1\SRC\TINYOBJ LOADER APP\OBJAPPLICATION.H
C:\USERS\JOSHUA.CREIGHTO\DESKTOP\COMPUTER GRAPHICS\SUBMISSION 2 - RESUBMISSION\SOURCE CODE\OPENGL ENGINE\OPENGL 1\SRC\GAMEOBJECT CLASS\BASEOBJECT.H
^C:\USERS\JOSHUA.CREIGHTO\DESKTOP\COMPUTER GRAPHICS\SUBMISSION 2 - RESUBMISSION\SOURCE CODE\OPENGL ENGINE\OPENGL 1\SRC\FBX ANIMATOR HANDLING APP\FBXANIMATORAPP.CPP
C:\USERS\JOSHUA.CREIGHTO\DESKTOP\COMPUTER GRAPHICS\SUBMISSION 2 - RESUBMISSION\SOURCE CODE\OPENGL ENGINE\OPENGL 1\SRC\FBX ANIMATOR HANDLING APP\FBXANIMATORAPP.H
C:\USERS\JOSHUA.CREIGHTO\DESKTOP\COMPUTER GRAPHICS\SUBMISSION 2 - RESUBMISSION\SOURCE CODE\OPENGL ENGINE\OPENGL 1\SRC\GAMEOBJECT CLASS\BASEOBJECT.H
^C:\USERS\JOSHUA.CREIGHTO\DESKTOP\COMPUTER GRAPHICS\SUBMISSION 2 - RESUBMISSION\SOURCE CODE\OPENGL ENGINE\OPENGL 1\SRC\GAMEOBJECT CLASS\BASEOBJECT.CPP
C:\USERS\JOSHUA.CREIGHTO\DESKTOP\COMPUTER GRAPHICS\SUBMISSION 2 - RESUBMISSION\SOURCE CODE\OPENGL ENGINE\OPENGL 1\SRC\GAMEOBJECT CLASS\BASEOBJECT.H
^C:\USERS\JOSHUA.CREIGHTO\DESKTOP\COMPUTER GRAPHICS\SUBMISSION 2 - RESUBMISSION\SOURCE CODE\OPENGL ENGINE\OPENGL 1\SRC\HELPER.CPP
C:\USERS\JOSHUA.CREIGHTO\DESKTOP\COMPUTER GRAPHICS\SUBMISSION 2 - RESUBMISSION\SOURCE CODE\OPENGL ENGINE\OPENGL 1\SRC\HELPER.H
^C:\USERS\JOSHUA.CREIGHTO\DESKTOP\COMPUTER GRAPHICS\SUBMISSION 2 - RESUBMISSION\SOURCE CODE\OPENGL ENGINE\OPENGL 1\SRC\GEOMETRYHELPER.CPP
C:\USERS\JOSHUA.CREIGHTO\DESKTOP\COMPUTER GRAPHICS\SUBMISSION 2 - RESUBMISSION\SOURCE CODE\OPENGL ENGINE\OPENGL 1\SRC\GEOMETRYHELPER.H
^C:\USERS\JOSHUA.CREIGHTO\DESKTOP\COMPUTER GRAPHICS\SUBMISSION 2 - RESUBMISSION\SOURCE CODE\OPENGL ENGINE\OPENGL 1\SRC\PROGRAM HELPER CLASS\PROGRAMHELPER.CPP
C:\USERS\JOSHUA.CREIGHTO\DESKTOP\COMPUTER GRAPHICS\SUBMISSION 2 - RESUBMISSION\SOURCE CODE\OPENGL ENGINE\OPENGL 1\SRC\PROGRAM HELPER CLASS\PROGRAMHELPER.H
^C:\USERS\JOSHUA.CREIGHTO\DESKTOP\COMPUTER GRAPHICS\SUBMISSION 2 - RESUBMISSION\SOURCE CODE\OPENGL ENGINE\OPENGL 1\SRC\PROCEDURAL GENERATION\GENERATIONAPP.CPP
C:\USERS\JOSHUA.CREIGHTO\DESKTOP\COMPUTER GRAPHICS\SUBMISSION 2 - RESUBMISSION\SOURCE CODE\OPENGL ENGINE\OPENGL 1\SRC\PROCEDURAL GENERATION\GENERATIONAPP.H
C:\USERS\JOSHUA.CREIGHTO\DESKTOP\COMPUTER GRAPHICS\SUBMISSION 2 - RESUBMISSION\SOURCE CODE\OPENGL ENGINE\OPENGL 1\SRC\GAMEOBJECT CLASS\BASEOBJECT.H
^C:\USERS\JOSHUA.CREIGHTO\DESKTOP\COMPUTER GRAPHICS\SUBMISSION 2 - RESUBMISSION\SOURCE CODE\OPENGL ENGINE\OPENGL 1\SRC\PARTICLE EFFECTS CLASS\PARTICLEAPP.CPP
C:\USERS\JOSHUA.CREIGHTO\DESKTOP\COMPUTER GRAPHICS\SUBMISSION 2 - RESUBMISSION\SOURCE CODE\OPENGL ENGINE\OPENGL 1\SRC\PARTICLE EFFECTS CLASS\PARTICLEAPP.H
C:\USERS\JOSHUA.CREIGHTO\DESKTOP\COMPUTER GRAPHICS\SUBMISSION 2 - RESUBMISSION\SOURCE CODE\OPENGL ENGINE\OPENGL 1\SRC\GAMEOBJECT CLASS\BASEOBJECT.H
^C:\USERS\JOSHUA.CREIGHTO\DESKTOP\COMPUTER GRAPHICS\SUBMISSION 2 - RESUBMISSION\SOURCE CODE\OPENGL ENGINE\OPENGL 1\SRC\PARTICLE EFFECTS CLASS\EMITTER.CPP
C:\USERS\JOSHUA.CREIGHTO\DESKTOP\COMPUTER GRAPHICS\SUBMISSION 2 - RESUBMISSION\SOURCE CODE\OPENGL ENGINE\OPENGL 1\SRC\PARTICLE EFFECTS CLASS\EMITTER.H
^C:\USERS\JOSHUA.CREIGHTO\DESKTOP\COMPUTER GRAPHICS\SUBMISSION 2 - RESUBMISSION\SOURCE CODE\OPENGL ENGINE\INC\TINY_OBJ_LOADER.CC
C:\USERS\JOSHUA.CREIGHTO\DESKTOP\COMPUTER GRAPHICS\SUBMISSION 2 - RESUBMISSION\SOURCE CODE\OPENGL ENGINE\INC\TINY_OBJ_LOADER.H
C:\PROGRAM FILES (X86)\MICROSOFT VISUAL STUDIO 14.0\VC\INCLUDE\STRING
C:\PROGRAM FILES (X86)\MICROSOFT VISUAL STUDIO 14.0\VC\INCLUDE\ISTREAM
C:\PROGRAM FILES (X86)\MICROSOFT VISUAL STUDIO 14.0\VC\INCLUDE\OSTREAM
C:\PROGRAM FILES (X86)\MICROSOFT VISUAL STUDIO 14.0\VC\INCLUDE\IOS
C:\PROGRAM FILES (X86)\MICROSOFT VISUAL STUDIO 14.0\VC\INCLUDE\XLOCNUM
C:\PROGRAM FILES (X86)\MICROSOFT VISUAL STUDIO 14.0\VC\INCLUDE\CLIMITS
C:\PROGRAM FILES (X86)\MICROSOFT VISUAL STUDIO 14.0\VC\INCLUDE\YVALS.H
C:\PROGRAM FILES (X86)\MICROSOFT VISUAL STUDIO 14.0\VC\INCLUDE\XKEYCHECK.H
C:\PROGRAM FILES (X86)\MICROSOFT VISUAL STUDIO 14.0\VC\INCLUDE\CRTDEFS.H
C:\PROGRAM FILES (X86)\MICROSOFT VISUAL STUDIO 14.0\VC\INCLUDE\VCRUNTIME.H
C:\PROGRAM FILES (X86)\MICROSOFT VISUAL STUDIO 14.0\VC\INCLUDE\SAL.H
C:\PROGRAM FILES (X86)\MICROSOFT VISUAL STUDIO 14.0\VC\INCLUDE\CONCURRENCYSAL.H
C:\PROGRAM FILES (X86)\MICROSOFT VISUAL STUDIO 14.0\VC\INCLUDE\VADEFS.H
C:\PROGRAM FILES (X86)\WINDOWS KITS\10\INCLUDE\10.0.10240.0\UCRT\CORECRT.H
C:\PROGRAM FILES (X86)\MICROSOFT VISUAL STUDIO 14.0\VC\INCLUDE\USE_ANSI.H
C:\PROGRAM FILES (X86)\MICROSOFT VISUAL STUDIO 14.0\VC\INCLUDE\LIMITS.H
C:\PROGRAM FILES (X86)\MICROSOFT VISUAL STUDIO 14.0\VC\INCLUDE\CMATH
C:\PROGRAM FILES (X86)\WINDOWS KITS\10\INCLUDE\10.0.10240.0\UCRT\MATH.H
C:\PROGRAM FILES (X86)\MICROSOFT VISUAL STUDIO 14.0\VC\INCLUDE\XTGMATH.H
C:\PROGRAM FILES (X86)\MICROSOFT VISUAL STUDIO 14.0\VC\INCLUDE\XTR1COMMON
C:\PROGRAM FILES (X86)\MICROSOFT VISUAL STUDIO 14.0\VC\INCLUDE\CSTDLIB
C:\PROGRAM FILES (X86)\WINDOWS KITS\10\INCLUDE\10.0.10240.0\UCRT\STDLIB.H
C:\PROGRAM FILES (X86)\WINDOWS KITS\10\INCLUDE\10.0.10240.0\UCRT\CORECRT_MALLOC.H
C:\PROGRAM FILES (X86)\WINDOWS KITS\10\INCLUDE\10.0.10240.0\UCRT\CORECRT_SEARCH.H
C:\PROGRAM FILES (X86)\WINDOWS KITS\10\INCLUDE\10.0.10240.0\UCRT\STDDEF.H
C:\PROGRAM FILES (X86)\WINDOWS KITS\10\INCLUDE\10.0.10240.0\UCRT\CORECRT_WSTDLIB.H
C:\PROGRAM FILES (X86)\MICROSOFT VISUAL STUDIO 14.0\VC\INCLUDE\CSTDIO
C:\PROGRAM FILES (X86)\WINDOWS KITS\10\INCLUDE\10.0.10240.0\UCRT\STDIO.H
C:\PROGRAM FILES (X86)\WINDOWS KITS\10\INCLUDE\10.0.10240.0\UCRT\CORECRT_WSTDIO.H
C:\PROGRAM FILES (X86)\WINDOWS KITS\10\INCLUDE\10.0.10240.0\UCRT\CORECRT_STDIO_CONFIG.H
C:\PROGRAM FILES (X86)\MICROSOFT VISUAL STUDIO 14.0\VC\INCLUDE\STREAMBUF
C:\PROGRAM FILES (X86)\MICROSOFT VISUAL STUDIO 14.0\VC\INCLUDE\XIOSBASE
C:\PROGRAM FILES (X86)\MICROSOFT VISUAL STUDIO 14.0\VC\INCLUDE\XLOCALE
C:\PROGRAM FILES (X86)\MICROSOFT VISUAL STUDIO 14.0\VC\INCLUDE\CSTRING
C:\PROGRAM FILES (X86)\WINDOWS KITS\10\INCLUDE\10.0.10240.0\UCRT\STRING.H
C:\PROGRAM FILES (X86)\WINDOWS KITS\10\INCLUDE\10.0.10240.0\UCRT\CORECRT_MEMORY.H
C:\PROGRAM FILES (X86)\WINDOWS KITS\10\INCLUDE\10.0.10240.0\UCRT\CORECRT_MEMCPY_S.H
C:\PROGRAM FILES (X86)\WINDOWS KITS\10\INCLUDE\10.0.10240.0\UCRT\ERRNO.H
C:\PROGRAM FILES (X86)\MICROSOFT VISUAL STUDIO 14.0\VC\INCLUDE\VCRUNTIME_STRING.H
C:\PROGRAM FILES (X86)\WINDOWS KITS\10\INCLUDE\10.0.10240.0\UCRT\CORECRT_WSTRING.H
C:\PROGRAM FILES (X86)\MICROSOFT VISUAL STUDIO 14.0\VC\INCLUDE\STDEXCEPT
C:\PROGRAM FILES (X86)\MICROSOFT VISUAL STUDIO 14.0\VC\INCLUDE\EXCEPTION
C:\PROGRAM FILES (X86)\MICROSOFT VISUAL STUDIO 14.0\VC\INCLUDE\TYPE_TRAITS
C:\PROGRAM FILES (X86)\MICROSOFT VISUAL STUDIO 14.0\VC\INCLUDE\XSTDDEF
C:\PROGRAM FILES (X86)\MICROSOFT VISUAL STUDIO 14.0\VC\INCLUDE\CSTDDEF
C:\PROGRAM FILES (X86)\MICROSOFT VISUAL STUDIO 14.0\VC\INCLUDE\INITIALIZER_LIST
C:\PROGRAM FILES (X86)\WINDOWS KITS\10\INCLUDE\10.0.10240.0\UCRT\MALLOC.H
C:\PROGRAM FILES (X86)\MICROSOFT VISUAL STUDIO 14.0\VC\INCLUDE\VCRUNTIME_EXCEPTION.H
C:\PROGRAM FILES (X86)\MICROSOFT VISUAL STUDIO 14.0\VC\INCLUDE\EH.H
C:\PROGRAM FILES (X86)\WINDOWS KITS\10\INCLUDE\10.0.10240.0\UCRT\CORECRT_TERMINATE.H
C:\PROGRAM FILES (X86)\MICROSOFT VISUAL STUDIO 14.0\VC\INCLUDE\XSTRING
C:\PROGRAM FILES (X86)\MICROSOFT VISUAL STUDIO 14.0\VC\INCLUDE\XMEMORY0
C:\PROGRAM FILES (X86)\MICROSOFT VISUAL STUDIO 14.0\VC\INCLUDE\CSTDINT
C:\PROGRAM FILES (X86)\MICROSOFT VISUAL STUDIO 14.0\VC\INCLUDE\STDINT.H
C:\PROGRAM FILES (X86)\MICROSOFT VISUAL STUDIO 14.0\VC\INCLUDE\LIMITS
C:\PROGRAM FILES (X86)\MICROSOFT VISUAL STUDIO 14.0\VC\INCLUDE\YMATH.H
C:\PROGRAM FILES (X86)\MICROSOFT VISUAL STUDIO 14.0\VC\INCLUDE\CFLOAT
C:\PROGRAM FILES (X86)\WINDOWS KITS\10\INCLUDE\10.0.10240.0\UCRT\FLOAT.H
C:\PROGRAM FILES (X86)\MICROSOFT VISUAL STUDIO 14.0\VC\INCLUDE\CWCHAR
C:\PROGRAM FILES (X86)\WINDOWS KITS\10\INCLUDE\10.0.10240.0\UCRT\WCHAR.H
C:\PROGRAM FILES (X86)\WINDOWS KITS\10\INCLUDE\10.0.10240.0\UCRT\CORECRT_WCONIO.H
C:\PROGRAM FILES (X86)\WINDOWS KITS\10\INCLUDE\10.0.10240.0\UCRT\CORECRT_WCTYPE.H
C:\PROGRAM FILES (X86)\WINDOWS KITS\10\INCLUDE\10.0.10240.0\UCRT\CORECRT_WDIRECT.H
C:\PROGRAM FILES (X86)\WINDOWS KITS\10\INCLUDE\10.0.10240.0\UCRT\CORECRT_WIO.H
C:\PROGRAM FILES (X86)\WINDOWS KITS\10\INCLUDE\10.0.10240.0\UCRT\CORECRT_SHARE.H
C:\PROGRAM FILES (X86)\WINDOWS KITS\10\INCLUDE\10.0.10240.0\UCRT\CORECRT_WPROCESS.H
C:\PROGRAM FILES (X86)\WINDOWS KITS\10\INCLUDE\10.0.10240.0\UCRT\CORECRT_WTIME.H
C:\PROGRAM FILES (X86)\WINDOWS KITS\10\INCLUDE\10.0.10240.0\UCRT\SYS\STAT.H
C:\PROGRAM FILES (X86)\WINDOWS KITS\10\INCLUDE\10.0.10240.0\UCRT\SYS\TYPES.H
C:\PROGRAM FILES (X86)\MICROSOFT VISUAL STUDIO 14.0\VC\INCLUDE\NEW
C:\PROGRAM FILES (X86)\MICROSOFT VISUAL STUDIO 14.0\VC\INCLUDE\VCRUNTIME_NEW.H
C:\PROGRAM FILES (X86)\MICROSOFT VISUAL STUDIO 14.0\VC\INCLUDE\XUTILITY
C:\PROGRAM FILES (X86)\MICROSOFT VISUAL STUDIO 14.0\VC\INCLUDE\UTILITY
C:\PROGRAM FILES (X86)\MICROSOFT VISUAL STUDIO 14.0\VC\INCLUDE\IOSFWD
C:\PROGRAM FILES (X86)\WINDOWS KITS\10\INCLUDE\10.0.10240.0\UCRT\CRTDBG.H
C:\PROGRAM FILES (X86)\MICROSOFT VISUAL STUDIO 14.0\VC\INCLUDE\VCRUNTIME_NEW_DEBUG.H
C:\PROGRAM FILES (X86)\MICROSOFT VISUAL STUDIO 14.0\VC\INCLUDE\XATOMIC0.H
C:\PROGRAM FILES (X86)\MICROSOFT VISUAL STUDIO 14.0\VC\INCLUDE\INTRIN.H
C:\PROGRAM FILES (X86)\MICROSOFT VISUAL STUDIO 14.0\VC\INCLUDE\SETJMP.H
C:\PROGRAM FILES (X86)\MICROSOFT VISUAL STUDIO 14.0\VC\INCLUDE\IMMINTRIN.H
C:\PROGRAM FILES (X86)\MICROSOFT VISUAL STUDIO 14.0\VC\INCLUDE\WMMINTRIN.H
C:\PROGRAM FILES (X86)\MICROSOFT VISUAL STUDIO 14.0\VC\INCLUDE\NMMINTRIN.H
C:\PROGRAM FILES (X86)\MICROSOFT VISUAL STUDIO 14.0\VC\INCLUDE\SMMINTRIN.H
C:\PROGRAM FILES (X86)\MICROSOFT VISUAL STUDIO 14.0\VC\INCLUDE\TMMINTRIN.H
C:\PROGRAM FILES (X86)\MICROSOFT VISUAL STUDIO 14.0\VC\INCLUDE\PMMINTRIN.H
C:\PROGRAM FILES (X86)\MICROSOFT VISUAL STUDIO 14.0\VC\INCLUDE\EMMINTRIN.H
C:\PROGRAM FILES (X86)\MICROSOFT VISUAL STUDIO 14.0\VC\INCLUDE\XMMINTRIN.H
C:\PROGRAM FILES (X86)\MICROSOFT VISUAL STUDIO 14.0\VC\INCLUDE\MMINTRIN.H
C:\PROGRAM FILES (X86)\MICROSOFT VISUAL STUDIO 14.0\VC\INCLUDE\AMMINTRIN.H
C:\PROGRAM FILES (X86)\MICROSOFT VISUAL STUDIO 14.0\VC\INCLUDE\TYPEINFO
C:\PROGRAM FILES (X86)\MICROSOFT VISUAL STUDIO 14.0\VC\INCLUDE\VCRUNTIME_TYPEINFO.H
C:\PROGRAM FILES (X86)\MICROSOFT VISUAL STUDIO 14.0\VC\INCLUDE\XLOCINFO
C:\PROGRAM FILES (X86)\MICROSOFT VISUAL STUDIO 14.0\VC\INCLUDE\XLOCINFO.H
C:\PROGRAM FILES (X86)\WINDOWS KITS\10\INCLUDE\10.0.10240.0\UCRT\CTYPE.H
C:\PROGRAM FILES (X86)\WINDOWS KITS\10\INCLUDE\10.0.10240.0\UCRT\LOCALE.H
C:\PROGRAM FILES (X86)\MICROSOFT VISUAL STUDIO 14.0\VC\INCLUDE\XFACET
C:\PROGRAM FILES (X86)\MICROSOFT VISUAL STUDIO 14.0\VC\INCLUDE\SYSTEM_ERROR
C:\PROGRAM FILES (X86)\MICROSOFT VISUAL STUDIO 14.0\VC\INCLUDE\CERRNO
C:\PROGRAM FILES (X86)\WINDOWS KITS\10\INCLUDE\10.0.10240.0\UCRT\SHARE.H
C:\PROGRAM FILES (X86)\MICROSOFT VISUAL STUDIO 14.0\VC\INCLUDE\VECTOR
C:\PROGRAM FILES (X86)\MICROSOFT VISUAL STUDIO 14.0\VC\INCLUDE\XMEMORY
C:\PROGRAM FILES (X86)\MICROSOFT VISUAL STUDIO 14.0\VC\INCLUDE\MAP
C:\PROGRAM FILES (X86)\MICROSOFT VISUAL STUDIO 14.0\VC\INCLUDE\TUPLE
C:\PROGRAM FILES (X86)\MICROSOFT VISUAL STUDIO 14.0\VC\INCLUDE\XTREE
C:\PROGRAM FILES (X86)\MICROSOFT VISUAL STUDIO 14.0\VC\INCLUDE\CASSERT
C:\PROGRAM FILES (X86)\WINDOWS KITS\10\INCLUDE\10.0.10240.0\UCRT\ASSERT.H
C:\PROGRAM FILES (X86)\MICROSOFT VISUAL STUDIO 14.0\VC\INCLUDE\CCTYPE
C:\PROGRAM FILES (X86)\MICROSOFT VISUAL STUDIO 14.0\VC\INCLUDE\FSTREAM
C:\PROGRAM FILES (X86)\MICROSOFT VISUAL STUDIO 14.0\VC\INCLUDE\SSTREAM
