^C:\USERS\JOSHUA.CREIGHTO\DESKTOP\COMPUTER GRAPHICS\SUBMISSION 2 - RESUBMISSION\OPENGL\OPENGL ENGINE\OPENGL 1\DEBUG\BASEAPPLICATION.OBJ|C:\USERS\JOSHUA.CREIGHTO\DESKTOP\COMPUTER GRAPHICS\SUBMISSION 2 - RESUBMISSION\OPENGL\OPENGL ENGINE\OPENGL 1\DEBUG\BASECAMERA.OBJ|C:\USERS\JOSHUA.CREIGHTO\DESKTOP\COMPUTER GRAPHICS\SUBMISSION 2 - RESUBMISSION\OPENGL\OPENGL ENGINE\OPENGL 1\DEBUG\BASEOBJECT.OBJ|C:\USERS\JOSHUA.CREIGHTO\DESKTOP\COMPUTER GRAPHICS\SUBMISSION 2 - RESUBMISSION\OPENGL\OPENGL ENGINE\OPENGL 1\DEBUG\EMITTER.OBJ|C:\USERS\JOSHUA.CREIGHTO\DESKTOP\COMPUTER GRAPHICS\SUBMISSION 2 - RESUBMISSION\OPENGL\OPENGL ENGINE\OPENGL 1\DEBUG\FBXANIMATORAPP.OBJ|C:\USERS\JOSHUA.CREIGHTO\DESKTOP\COMPUTER GRAPHICS\SUBMISSION 2 - RESUBMISSION\OPENGL\OPENGL ENGINE\OPENGL 1\DEBUG\FBXAPPLICATION.OBJ|C:\USERS\JOSHUA.CREIGHTO\DESKTOP\COMPUTER GRAPHICS\SUBMISSION 2 - RESUBMISSION\OPENGL\OPENGL ENGINE\OPENGL 1\DEBUG\FLYCAMERA.OBJ|C:\USERS\JOSHUA.CREIGHTO\DESKTOP\COMPUTER GRAPHICS\SUBMISSION 2 - RESUBMISSION\OPENGL\OPENGL ENGINE\OPENGL 1\DEBUG\GENERATIONAPP.OBJ|C:\USERS\JOSHUA.CREIGHTO\DESKTOP\COMPUTER GRAPHICS\SUBMISSION 2 - RESUBMISSION\OPENGL\OPENGL ENGINE\OPENGL 1\DEBUG\GEOMETRYHELPER.OBJ|C:\USERS\JOSHUA.CREIGHTO\DESKTOP\COMPUTER GRAPHICS\SUBMISSION 2 - RESUBMISSION\OPENGL\OPENGL ENGINE\OPENGL 1\DEBUG\GIZMOS.OBJ|C:\USERS\JOSHUA.CREIGHTO\DESKTOP\COMPUTER GRAPHICS\SUBMISSION 2 - RESUBMISSION\OPENGL\OPENGL ENGINE\OPENGL 1\DEBUG\GL_CORE_4_4.OBJ|C:\USERS\JOSHUA.CREIGHTO\DESKTOP\COMPUTER GRAPHICS\SUBMISSION 2 - RESUBMISSION\OPENGL\OPENGL ENGINE\OPENGL 1\DEBUG\HELPER.OBJ|C:\USERS\JOSHUA.CREIGHTO\DESKTOP\COMPUTER GRAPHICS\SUBMISSION 2 - RESUBMISSION\OPENGL\OPENGL ENGINE\OPENGL 1\DEBUG\MAIN.OBJ|C:\USERS\JOSHUA.CREIGHTO\DESKTOP\COMPUTER GRAPHICS\SUBMISSION 2 - RESUBMISSION\OPENGL\OPENGL ENGINE\OPENGL 1\DEBUG\OBJAPPLICATION.OBJ|C:\USERS\JOSHUA.CREIGHTO\DESKTOP\COMPUTER GRAPHICS\SUBMISSION 2 - RESUBMISSION\OPENGL\OPENGL ENGINE\OPENGL 1\DEBUG\PARTICLEAPP.OBJ|C:\USERS\JOSHUA.CREIGHTO\DESKTOP\COMPUTER GRAPHICS\SUBMISSION 2 - RESUBMISSION\OPENGL\OPENGL ENGINE\OPENGL 1\DEBUG\PLANET.OBJ|C:\USERS\JOSHUA.CREIGHTO\DESKTOP\COMPUTER GRAPHICS\SUBMISSION 2 - RESUBMISSION\OPENGL\OPENGL ENGINE\OPENGL 1\DEBUG\PROGRAMHELPER.OBJ|C:\USERS\JOSHUA.CREIGHTO\DESKTOP\COMPUTER GRAPHICS\SUBMISSION 2 - RESUBMISSION\OPENGL\OPENGL ENGINE\OPENGL 1\DEBUG\SHADERAPPLICATION.OBJ|C:\USERS\JOSHUA.CREIGHTO\DESKTOP\COMPUTER GRAPHICS\SUBMISSION 2 - RESUBMISSION\OPENGL\OPENGL ENGINE\OPENGL 1\DEBUG\SOLARSYSTEMAPP.OBJ|C:\USERS\JOSHUA.CREIGHTO\DESKTOP\COMPUTER GRAPHICS\SUBMISSION 2 - RESUBMISSION\OPENGL\OPENGL ENGINE\OPENGL 1\DEBUG\TEXTUREAPP.OBJ|C:\USERS\JOSHUA.CREIGHTO\DESKTOP\COMPUTER GRAPHICS\SUBMISSION 2 - RESUBMISSION\OPENGL\OPENGL ENGINE\OPENGL 1\DEBUG\TINY_OBJ_LOADER.OBJ
C:\USERS\JOSHUA.CREIGHTO\DESKTOP\COMPUTER GRAPHICS\SUBMISSION 2 - RESUBMISSION\OPENGL\OPENGL ENGINE\OPENGL 1\DEBUG\OPENGL 1.ILK
C:\USERS\JOSHUA.CREIGHTO\DESKTOP\COMPUTER GRAPHICS\SUBMISSION 2 - RESUBMISSION\OPENGL\OPENGL ENGINE\OPENGL 1\DEBUG\OPENGL 1.EXE
C:\USERS\JOSHUA.CREIGHTO\DESKTOP\COMPUTER GRAPHICS\SUBMISSION 2 - RESUBMISSION\OPENGL\OPENGL ENGINE\OPENGL 1\DEBUG\OPENGL 1.PDB
